{
  "collapse-filter": true,
  "search": "",
  "showTags": true,
  "showAttachments": false,
  "hideUnresolved": true,
  "showOrphans": true,
  "collapse-color-groups": true,
  "colorGroups": [
    {
      "query": "#debate",
      "color": {
        "a": 1,
        "rgb": 12403679
      }
    },
    {
      "query": "#clownery",
      "color": {
        "a": 1,
        "rgb": 7368914
      }
    },
    {
      "query": "#lipidology",
      "color": {
        "a": 1,
        "rgb": 7393985
      }
    },
    {
      "query": "#exercise",
      "color": {
        "a": 1,
        "rgb": 14206575
      }
    },
    {
      "query": "#nutrition",
      "color": {
        "a": 1,
        "rgb": 13395456
      }
    },
    {
      "query": "#hyperblog",
      "color": {
        "a": 1,
        "rgb": 3512547
      }
    }
  ],
  "collapse-display": true,
  "showArrow": false,
  "textFadeMultiplier": 0,
  "nodeSizeMultiplier": 0.508333333333333,
  "lineSizeMultiplier": 0.1,
  "collapse-forces": false,
  "centerStrength": 0.385416666666667,
  "repelStrength": 9.79166666666667,
  "linkStrength": 0.885416666666667,
  "linkDistance": 500,
  "scale": 0.0263671875,
  "close": true
}