{
  "realTimeUpdate": true,
  "realTimeUpdateInterval": 1000,
  "realTimeAttemptsToProcess": 3,
  "cleanContent": true,
  "showNotifications": true,
  "include": ".*\\.md",
  "mediaRootDirectory": "🥙 Nutrition Vault"
}